{
    "/js/main.js": "/js/main.js?id=5e2cbca99a016608884d9d3ffe5c7cdc",
    "/js/chunks/index2.9038628f5717242d.js": "/js/chunks/index2.9038628f5717242d.js?id=3297b9d53af5c4f2d9104c76a9312b6f",
    "/js/chunks/components-tabs.38ecedcfe393cd2e.js": "/js/chunks/components-tabs.38ecedcfe393cd2e.js?id=347e382c9faba72dd1a32c6af726fd26",
    "/js/chunks/components-accordions.86795915ea517e76.js": "/js/chunks/components-accordions.86795915ea517e76.js?id=b2c7d36e042a719b73057317eb10abc8",
    "/js/chunks/components-modals.b43e1cc1a7c42785.js": "/js/chunks/components-modals.b43e1cc1a7c42785.js?id=8793dd5954c54376c0b65d029280dd08",
    "/js/chunks/components-cards.51eed9ef69d50bdc.js": "/js/chunks/components-cards.51eed9ef69d50bdc.js?id=042dbccc46b4e79e718af48ab8a3d65b",
    "/js/chunks/components-carousel.1afbe2f597ff1782.js": "/js/chunks/components-carousel.1afbe2f597ff1782.js?id=a758d35143f0aac3dd3f10d88eb561c8",
    "/js/chunks/components-timeline.1d8ee270fa2c8943.js": "/js/chunks/components-timeline.1d8ee270fa2c8943.js?id=8545addd37f77b84c576b2130b63c75f",
    "/js/chunks/components-media-object.053b72abfef7ffb2.js": "/js/chunks/components-media-object.053b72abfef7ffb2.js?id=52a49e39083c733ac347e7a8ce3abd97",
    "/js/chunks/components-list-group.b2e1bce79e698e70.js": "/js/chunks/components-list-group.b2e1bce79e698e70.js?id=86656a4e445f18d07f87b70ad59a34a7",
    "/js/chunks/components-pricing-table.ac30d6b48edd17d1.js": "/js/chunks/components-pricing-table.ac30d6b48edd17d1.js?id=64395da4b6376ffd6f6894bbf5f09736",
    "/js/chunks/components-notifications.670737aa79d0d219.js": "/js/chunks/components-notifications.670737aa79d0d219.js?id=ee4cd814c3f61b2a7ae648cf4fa6e285",
    "/js/chunks/components-lightbox.ad684793eaa4c581.js": "/js/chunks/components-lightbox.ad684793eaa4c581.js?id=69e66f6c780c9659417a6c6015967f5e",
    "/js/chunks/components-countdown.c42e8fc3bef4c609.js": "/js/chunks/components-countdown.c42e8fc3bef4c609.js?id=689a8e01317d40c698479678bc02d988",
    "/js/chunks/components-counter.5904ac1c4930066d.js": "/js/chunks/components-counter.5904ac1c4930066d.js?id=d20b833a76d444acf2c5a06178fc322f",
    "/js/chunks/components-sweetalert.ab15544cff8b0609.js": "/js/chunks/components-sweetalert.ab15544cff8b0609.js?id=e55f40dfb0a44f7fa6536cfcb8da6ad2",
    "/js/chunks/font-icons.8729038c85e30d9a.js": "/js/chunks/font-icons.8729038c85e30d9a.js?id=8c4eaf68fb924de45a9e33cc14e018c9",
    "/js/chunks/pages-helpdesk.75615562a8f62fb9.js": "/js/chunks/pages-helpdesk.75615562a8f62fb9.js?id=5c4e7bfe27cc2ade8b3bea7472768bdf",
    "/js/chunks/pages-contact-us.af71350628d3e323.js": "/js/chunks/pages-contact-us.af71350628d3e323.js?id=abaa065c76ab02f82d2afd829f3f760f",
    "/js/chunks/pages-faq.63ed6e901808e5e1.js": "/js/chunks/pages-faq.63ed6e901808e5e1.js?id=1e14c96c1b89b8d34e5d6869ab5f592c",
    "/js/chunks/pages-faq2.944d737fba5f1132.js": "/js/chunks/pages-faq2.944d737fba5f1132.js?id=1e7f81cd049c3cef953a4237bf754182",
    "/js/chunks/pages-privacy-policy.7bbd4029282126ce.js": "/js/chunks/pages-privacy-policy.7bbd4029282126ce.js?id=4362d7c9f1c50298d0380fb7d88b59af",
    "/js/chunks/pages-coming-soon.73f529fd3877ecdd.js": "/js/chunks/pages-coming-soon.73f529fd3877ecdd.js?id=050fdc6854ebfc53443689496bd365f1",
    "/js/chunks/pages-error404.719de1fc6d5aeba2.js": "/js/chunks/pages-error404.719de1fc6d5aeba2.js?id=12dc17e9905a4664992df8c46405eb27",
    "/js/chunks/pages-error500.750cb5ff127dd9e2.js": "/js/chunks/pages-error500.750cb5ff127dd9e2.js?id=097addef2ab74426959457f8dc0e23f0",
    "/js/chunks/pages-error503.c2e68ba1c68c3e7d.js": "/js/chunks/pages-error503.c2e68ba1c68c3e7d.js?id=f206f132933a51305889cf73c361072b",
    "/js/chunks/pages-maintenence.056f04b21ef23cd8.js": "/js/chunks/pages-maintenence.056f04b21ef23cd8.js?id=ede7b35a0f8afd0495a397cb084be165",
    "/js/chunks/pages-blank-page.539dd7cdd81a22ce.js": "/js/chunks/pages-blank-page.539dd7cdd81a22ce.js?id=c569b36172f1916f519e82ce994ee88a",
    "/js/chunks/pages-sample.0312dd4b09a0ffd1.js": "/js/chunks/pages-sample.0312dd4b09a0ffd1.js?id=9eab14b1af0fca808e2706d8fe6db301",
    "/js/chunks/auth-login-boxed.f05841e2025b3ea5.js": "/js/chunks/auth-login-boxed.f05841e2025b3ea5.js?id=abc575c92ee1b728776881a904a53d39",
    "/js/chunks/auth-register-boxed.db21521de89bd664.js": "/js/chunks/auth-register-boxed.db21521de89bd664.js?id=45a2c1eb340c1082bc8f5241723935f8",
    "/js/chunks/auth-lockscreen-boxed.976e795596d5b56a.js": "/js/chunks/auth-lockscreen-boxed.976e795596d5b56a.js?id=27d08005dee15102c31a66021f2461e3",
    "/js/chunks/auth-pass-recovery-boxed.a98632c24336a146.js": "/js/chunks/auth-pass-recovery-boxed.a98632c24336a146.js?id=16841640056689f0a9800749792cf3e8",
    "/js/chunks/auth-login.b8167cd0abefded7.js": "/js/chunks/auth-login.b8167cd0abefded7.js?id=d8028b7b44d787ca12f34c881e01abff",
    "/js/chunks/auth-register.2adeecba50f9505c.js": "/js/chunks/auth-register.2adeecba50f9505c.js?id=86003b727a26e52804f0551ae219daa1",
    "/js/chunks/auth-lockscreen.4a0f6a9304239341.js": "/js/chunks/auth-lockscreen.4a0f6a9304239341.js?id=4ad530b06e660c7802fd73cdb1dcb294",
    "/js/chunks/auth-pass-recovery.9eecb4b680d7789c.js": "/js/chunks/auth-pass-recovery.9eecb4b680d7789c.js?id=4c6110fc10f1e049109577a17fcf7450",
    "/js/chunks/elements-alerts.f80cc7a84b5532dd.js": "/js/chunks/elements-alerts.f80cc7a84b5532dd.js?id=9d16de8fb437c3de9acac5e917da2079",
    "/js/chunks/elements-avatar.4f9cc38945cbb76f.js": "/js/chunks/elements-avatar.4f9cc38945cbb76f.js?id=c73b3dc8ec76854c6a9f2a92e8e20c5a",
    "/js/chunks/elements-badges.2082479fe1537d2a.js": "/js/chunks/elements-badges.2082479fe1537d2a.js?id=f8325d4e4a85baff199c5e7e859964f1",
    "/js/chunks/elements-breadcrumbs.3919167a9d4bfb12.js": "/js/chunks/elements-breadcrumbs.3919167a9d4bfb12.js?id=97a7aec031319119a9f0c436d541c24b",
    "/js/chunks/elements-buttons.467179d5fde72530.js": "/js/chunks/elements-buttons.467179d5fde72530.js?id=d00cc8b46be7078e139bc0dbdc4e60d6",
    "/js/chunks/elements-buttons-group.b1e0ce06c15e15f2.js": "/js/chunks/elements-buttons-group.b1e0ce06c15e15f2.js?id=af084cece02caa5a7c0d109098cb4158",
    "/js/chunks/elements-color-library.2e5d9dbad39e2bf4.js": "/js/chunks/elements-color-library.2e5d9dbad39e2bf4.js?id=6250df2605bcae2c1c0ff82330a635c4",
    "/js/chunks/elements-dropdown.c2fd8890847d3557.js": "/js/chunks/elements-dropdown.c2fd8890847d3557.js?id=cbaf8989c9f2fd79fcf5da05474813aa",
    "/js/chunks/elements-infobox.0f368cc1cfc1d76e.js": "/js/chunks/elements-infobox.0f368cc1cfc1d76e.js?id=fb6cdda06617e2e72253ff1caacdf4a6",
    "/js/chunks/elements-jumbotron.c60f6df62e36ef6b.js": "/js/chunks/elements-jumbotron.c60f6df62e36ef6b.js?id=d0f3ca0fb433f97289f9869f56651b17",
    "/js/chunks/elements-loader.0716a3cd13f78467.js": "/js/chunks/elements-loader.0716a3cd13f78467.js?id=40f641be62eae502ea87b9477050a7f9",
    "/js/chunks/elements-pagination.6cd73fb743338bb5.js": "/js/chunks/elements-pagination.6cd73fb743338bb5.js?id=ab78f8a55c3c7dd3bfb3c8e5fbbaa9b0",
    "/js/chunks/elements-popovers.f636aae51242ee75.js": "/js/chunks/elements-popovers.f636aae51242ee75.js?id=8a3fa6b5618c44eb13bdc41edbcd4873",
    "/js/chunks/elements-progress-bar.29f2e9c77d4621cf.js": "/js/chunks/elements-progress-bar.29f2e9c77d4621cf.js?id=5ba8bf23b1aa62b56c1e6f0898fa0557",
    "/js/chunks/elements-search.b4fd521f2c846d76.js": "/js/chunks/elements-search.b4fd521f2c846d76.js?id=3add7f18bf0da22d83d4d91043a52111",
    "/js/chunks/elements-tooltips.6fbd0560a8d3dcd5.js": "/js/chunks/elements-tooltips.6fbd0560a8d3dcd5.js?id=efde31f3946eac7ac392c098d38f95ba",
    "/js/chunks/elements-treeview.b469889fa295718c.js": "/js/chunks/elements-treeview.b469889fa295718c.js?id=13af69fdb6f080719c0088793062c4c8",
    "/js/chunks/elements-typography.b968bb0d3a2a6887.js": "/js/chunks/elements-typography.b968bb0d3a2a6887.js?id=9d648df327a16b8969e6274c81bcfac3",
    "/js/chunks/tables.51af2dfcc3b7ee6c.js": "/js/chunks/tables.51af2dfcc3b7ee6c.js?id=e8c98ebfe354c3089a2fab233cd553f4",
    "/js/chunks/users-profile.aef3bff997b36b2e.js": "/js/chunks/users-profile.aef3bff997b36b2e.js?id=536f22376af982f766f81448d19cc484",
    "/js/chunks/users-account-setting.7673a42b52f0de6e.js": "/js/chunks/users-account-setting.7673a42b52f0de6e.js?id=ecc4eb713ced6376a8b0b9d227e814bc",
    "/js/chunks/dragndrop.bfcb481bf63da805.js": "/js/chunks/dragndrop.bfcb481bf63da805.js?id=178f0d9e3585af2e099ca73b91b8b31f",
    "/js/chunks/charts-apex-chart.df1eefc2cc2ea97a.js": "/js/chunks/charts-apex-chart.df1eefc2cc2ea97a.js?id=f78974fa02f2928bf946d5696ab1c67c",
    "/js/chunks/widgets.d3fe5fe49d1f67e8.js": "/js/chunks/widgets.d3fe5fe49d1f67e8.js?id=80c247933b92b7a32823880daf2798d8",
    "/js/chunks/forms-basic.c066857dd1c78998.js": "/js/chunks/forms-basic.c066857dd1c78998.js?id=2f2317e4c544477c76ccc54f594ffe36",
    "/js/chunks/forms-input-group.2d6b345f89f017d3.js": "/js/chunks/forms-input-group.2d6b345f89f017d3.js?id=e1fdb7b8ae82a849b13653189f768545",
    "/js/chunks/forms-layouts.b4fb4c296279a17f.js": "/js/chunks/forms-layouts.b4fb4c296279a17f.js?id=b78551e0ae7d6c214ccf6f912500b6bf",
    "/js/chunks/forms-validation.53d556ce9edffdd0.js": "/js/chunks/forms-validation.53d556ce9edffdd0.js?id=1ca3389081333c032d70a745190c1ccd",
    "/js/chunks/forms-checkbox-radio.ec9de3fecefd87c9.js": "/js/chunks/forms-checkbox-radio.ec9de3fecefd87c9.js?id=11a1e416c6c6e1222330cd7d3420c17f",
    "/js/chunks/forms-switches.56fd11e7fbf60c59.js": "/js/chunks/forms-switches.56fd11e7fbf60c59.js?id=7dcb4379ab465f2b2b78cba9f3d17937",
    "/js/chunks/forms-wizards.23ba5482d63148c6.js": "/js/chunks/forms-wizards.23ba5482d63148c6.js?id=f45c7e2e34bbb3cf22814944c20fe779",
    "/js/chunks/forms-file-upload.764437624d84c11a.js": "/js/chunks/forms-file-upload.764437624d84c11a.js?id=5d9cd8787d62ef48b3f14cff96c9b335",
    "/js/chunks/forms-clipboard.c4179bdabb193863.js": "/js/chunks/forms-clipboard.c4179bdabb193863.js?id=c1ad3982f235bb2babf130c296af33c3",
    "/js/chunks/forms-date-picker.d204eda3b688fa03.js": "/js/chunks/forms-date-picker.d204eda3b688fa03.js?id=f0e55b61610445131a2c36011831f11b",
    "/js/chunks/forms-input-mask.96f350ba86fa4cc2.js": "/js/chunks/forms-input-mask.96f350ba86fa4cc2.js?id=8bd61d1d90050952f1e4fe550315065c",
    "/js/chunks/forms-quill-editor.005bafa7c74d653c.js": "/js/chunks/forms-quill-editor.005bafa7c74d653c.js?id=f7215abd7bf2d7c1ea5005e0237f9235",
    "/js/chunks/forms-touchspin.2586c99e85e3db74.js": "/js/chunks/forms-touchspin.2586c99e85e3db74.js?id=003067fd98d3d2c2ca1585b0e51202b9",
    "/js/chunks/forms-markdown-editor.ec9b7f562cf5d376.js": "/js/chunks/forms-markdown-editor.ec9b7f562cf5d376.js?id=45adbc00a9fca0843763f4fc45e0395d",
    "/js/chunks/forms-select2.a6dbb8c98ae4272a.js": "/js/chunks/forms-select2.a6dbb8c98ae4272a.js?id=f337c1f4486f30dffa5cbf527a73fd53",
    "/js/chunks/apps-chat.d700cb2675429de4.js": "/js/chunks/apps-chat.d700cb2675429de4.js?id=68a17b3f778e3d0808165eb52591a07a",
    "/js/chunks/apps-mailbox.a86f6e3e4509ea6d.js": "/js/chunks/apps-mailbox.a86f6e3e4509ea6d.js?id=b37caeb77d2724a0461bf7ba59f9ae20",
    "/js/chunks/apps-todo-list.7fd5b9b8ebaf0a6b.js": "/js/chunks/apps-todo-list.7fd5b9b8ebaf0a6b.js?id=2c8d42384387ff8140843bed00a06306",
    "/js/chunks/apps-contacts.292f63cd825291ce.js": "/js/chunks/apps-contacts.292f63cd825291ce.js?id=75661aff5b8a981568b21a393252499f",
    "/js/chunks/apps-notes.b73db46aa99eb2f3.js": "/js/chunks/apps-notes.b73db46aa99eb2f3.js?id=57ae677903a3bbe52b82d4d303c2ced4",
    "/js/chunks/apps-scrumboard.5b079e7ea1d4038e.js": "/js/chunks/apps-scrumboard.5b079e7ea1d4038e.js?id=68cc4cbc960820bd7c6c024b238e33bd",
    "/js/chunks/apps-calendar.8e4929e61e60b070.js": "/js/chunks/apps-calendar.8e4929e61e60b070.js?id=25b8a70ab8024846505dc298980ceb31",
    "/js/chunks/apps-invoice-preview.5a5b883c2a3d2207.js": "/js/chunks/apps-invoice-preview.5a5b883c2a3d2207.js?id=cdba4186f847d74d550ef4f9193c1c7d",
    "/js/chunks/apps-invoice-add.1e2c50a78b980dfe.js": "/js/chunks/apps-invoice-add.1e2c50a78b980dfe.js?id=ffd228938ac2443028a9d1f916416e58",
    "/js/chunks/apps-invoice-edit.a0e82e69c05bd0e5.js": "/js/chunks/apps-invoice-edit.a0e82e69c05bd0e5.js?id=00e3249057a9c8ca4596cf24c0364710",
    "/js/chunks/tables-basic.0e096be9babd94f8.js": "/js/chunks/tables-basic.0e096be9babd94f8.js?id=fdcebf1a442efb1b29e6a6802c7def80",
    "/js/chunks/tables-striped.0b5abf7427820074.js": "/js/chunks/tables-striped.0b5abf7427820074.js?id=f4fa13fba2eb0a88d2d098e6fd06afe6",
    "/js/chunks/tables-order-sorting.98e9cb9d9f981612.js": "/js/chunks/tables-order-sorting.98e9cb9d9f981612.js?id=97d994549ff458cfd8dd579ef1511635",
    "/js/chunks/tables-multi-column.0659b3bee42c073d.js": "/js/chunks/tables-multi-column.0659b3bee42c073d.js?id=8e420839c5f1a01b12ecacbc8e6e77d5",
    "/js/chunks/tables-multiple-tables.7d5f965e3740fe9f.js": "/js/chunks/tables-multiple-tables.7d5f965e3740fe9f.js?id=6d5f1fb25a6c0052b202c428aa84e412",
    "/js/chunks/tables-alt-pagination.9081ddde585212b4.js": "/js/chunks/tables-alt-pagination.9081ddde585212b4.js?id=66245a6bbd004314d0ad686cb54300f4",
    "/js/chunks/tables-custom.08041dddac93bca3.js": "/js/chunks/tables-custom.08041dddac93bca3.js?id=2eaa6c5a0444219592796e67941d3c2c",
    "/js/chunks/tables-range-search.4d2fecb39670b98b.js": "/js/chunks/tables-range-search.4d2fecb39670b98b.js?id=21b6ac2db66e5fa6a93d87244c1148d9",
    "/js/chunks/tables-export.09e8d60153cf36b9.js": "/js/chunks/tables-export.09e8d60153cf36b9.js?id=b5873cd4df4009a6d41210ef9f3a547d",
    "/js/chunks/tables-live-dom-ordering.c830901c9a5435e3.js": "/js/chunks/tables-live-dom-ordering.c830901c9a5435e3.js?id=9ca562054f35dca83bf48eb7f019eb69",
    "/js/chunks/tables-miscellaneous.3047d6b16868254e.js": "/js/chunks/tables-miscellaneous.3047d6b16868254e.js?id=0b5cd821d8708aa6a8edb0ec62a06004",
    "/css/app.css": "/css/app.css?id=43f7c766c84a80832a975d0cfad7ed7b"
}
